Project 1. Presidentsâ€™ Inaugural Speeches
…
series <- tibble()
for(i in seq_along(Presidents_Name)) {
        
        clean <- tibble(Term = seq_along(Speeches_text[[i]]),
                        text = Speeches_text[[i]]) %>%
             unnest_tokens(word, text) %>%
             mutate(Name = Presidents_Name[i]) %>%
             select(Name, everything())

        series <- rbind(series, clean)
}

series

## # A tibble: 401,470 x 3
##                 Name  Term     word
##                <chr> <int>    <chr>
##  1 George Washington     1   fellow
##  2 George Washington     1 citizens
##  3 George Washington     1       of
##  4 George Washington     1      the
##  5 George Washington     1   senate
##  6 George Washington     1      and
##  7 George Washington     1       of
##  8 George Washington     1      the
##  9 George Washington     1    house
## 10 George Washington     1       of
## # ... with 401,460 more rows
…
Step4. Plot the graph of them

# Find the top 10 most frequent words of the last six presidents
series %>%
        anti_join(stop_words) %>%
        group_by(Name) %>%
        count(word, sort = TRUE) %>%
        top_n(10)

## Joining, by = "word"

## Selecting by n

## # A tibble: 694 x 3
## # Groups:   Name [61]
##                  Name       word     n
##                 <chr>      <chr> <int>
##  1      Richard Nixon    america   160
##  2      Richard Nixon      world   120
##  3   Albert Gore, Jr.   applause   109
##  4        John McCain   applause   100
##  5     George W. Bush   applause    99
##  6      Ronald Reagan     people    98
##  7      Ronald Reagan government    97
##  8 William J. Clinton    america    96
##  9 William J. Clinton     people    95
## 10      Richard Nixon     people    92
## # ... with 684 more rows
…
Step1. We break up each speech by 50 words

Step2. Used â€œbingâ€ to assess the positive vs.Â negative sentiment of each word

Step3. Counted up how many positive and negative words there are for every 50 words

Step4. Calculated a net sentiment using (positive words - negative words)

Step5. Plotted the final results

# Loaded lexicon
get_sentiments("bing")

## # A tibble: 6,788 x 2
##           word sentiment
##          <chr>     <chr>
##  1     2-faced  negative
##  2     2-faces  negative
##  3          a+  positive
##  4    abnormal  negative
##  5     abolish  negative
##  6  abominable  negative
##  7  abominably  negative
##  8   abominate  negative
##  9 abomination  negative
## 10       abort  negative
## # ... with 6,778 more rows
…
